# This file uses centimeters as units for non-parametric coordinates.

mtllib Inverted01_low.mtl
g CornerBlank01_low:default2
v 7.849675 2.387577 -7.533102
v 8.825476 2.345214 -7.701398
v 7.867589 2.940093 -7.568307
v 8.843389 2.897731 -7.736604
v 7.811435 2.921468 -7.889207
v 8.787235 2.879104 -8.057504
v 7.793519 2.368952 -7.854004
v 8.769320 2.326590 -8.022299
v 6.246141 1.113280 -5.773683
v 6.864701 1.153100 -6.547052
v 6.238339 1.666704 -5.751428
v 6.856899 1.706524 -6.524798
v 5.983423 1.671299 -5.955079
v 6.601984 1.711119 -6.728449
v 5.991224 1.117877 -5.977334
v 6.609784 1.157696 -6.750704
v 6.307130 1.790150 -5.361788
v 6.535528 1.741369 -6.324990
v 6.320288 2.343359 -5.386685
v 6.548687 2.294579 -6.349887
v 6.002856 2.347512 -5.462166
v 6.231255 2.298732 -6.425369
v 5.989699 1.794303 -5.437270
v 6.218098 1.745523 -6.400472
v 7.476660 4.342255 -7.260114
v 8.335365 4.283968 -7.751571
v 7.511740 4.895053 -7.264380
v 8.370447 4.836765 -7.755836
v 7.350118 4.903123 -7.547736
v 8.208824 4.844835 -8.039192
v 7.315037 4.350326 -7.543469
v 8.173741 4.292038 -8.034927
v 6.376219 2.387422 -5.647674
v 6.832250 2.410223 -6.527344
v 6.355115 2.940935 -5.644267
v 6.811145 2.963737 -6.523937
v 6.065666 2.930825 -5.794582
v 6.521698 2.953626 -6.674253
v 6.086771 2.377312 -5.797989
v 6.542803 2.400114 -6.677660
v 7.870635 3.702886 -7.573678
v 8.850595 3.653904 -7.713619
v 7.887136 4.251270 -7.650074
v 8.867094 4.202288 -7.790015
v 7.839298 4.208145 -7.969964
v 8.819260 4.159163 -8.109905
v 7.822798 3.659762 -7.893568
v 8.802758 3.610780 -8.033509
v 8.697651 1.764745 -7.680993
v 9.545702 1.802783 -7.713416
v 8.674770 2.236887 -7.725555
v 9.522821 2.274925 -7.757978
v 8.665329 2.210167 -8.003808
v 9.513382 2.248204 -8.036231
v 8.688211 1.738024 -7.959246
v 9.536263 1.776062 -7.991670
v 6.327548 3.748717 -4.433060
v 6.314840 3.698272 -5.422806
v 6.299764 4.301247 -4.460864
v 6.287057 4.250802 -5.450610
v 5.973892 4.285112 -4.455858
v 5.961185 4.234666 -5.445604
v 6.001677 3.732583 -4.428053
v 5.988969 3.682138 -5.417799
v 6.364176 1.315278 -4.115736
v 6.372691 1.241177 -5.104039
v 6.337873 1.867013 -4.157331
v 6.346388 1.792911 -5.145633
v 6.011945 1.851352 -4.158964
v 6.020459 1.777250 -5.147268
v 6.038247 1.299617 -4.117369
v 6.046763 1.225515 -5.105673
v 6.415248 4.344068 -5.299188
v 6.568215 4.321167 -6.278156
v 6.383280 4.896780 -5.317112
v 6.536248 4.873878 -6.296081
v 6.061430 4.876549 -5.366928
v 6.214400 4.853647 -6.345898
v 6.093398 4.323837 -5.349004
v 6.246367 4.300937 -6.327974
v 7.490881 3.077441 -7.235456
v 8.292193 2.961527 -7.807092
v 7.566440 3.626163 -7.240805
v 8.367752 3.510250 -7.812438
v 7.379636 3.649288 -7.507351
v 8.180951 3.533375 -8.078987
v 7.304078 3.100566 -7.502003
v 8.105392 2.984654 -8.073639
v 7.859414 1.120463 -7.508761
v 8.836237 1.087374 -7.673157
v 7.873461 1.673509 -7.536613
v 8.850285 1.640421 -7.701008
v 7.818875 1.658712 -7.857982
v 8.795698 1.625623 -8.022379
v 7.804829 1.105665 -7.830131
v 8.781652 1.072577 -7.994527
v 7.541891 1.763786 -7.284653
v 8.414675 1.728742 -7.752972
v 7.552732 2.317201 -7.305863
v 8.425516 2.282156 -7.774181
v 7.398245 2.309216 -7.593174
v 8.271030 2.274171 -8.061493
v 7.387403 1.755802 -7.571964
v 8.260190 1.720758 -8.040283
v 8.620893 4.328938 -7.691660
v 9.469910 4.339578 -7.664338
v 8.615088 4.803674 -7.696166
v 9.464106 4.814314 -7.668844
v 8.624115 4.801130 -7.975702
v 9.473133 4.811769 -7.948381
v 8.629919 4.326395 -7.971195
v 9.478937 4.337036 -7.943874
v 6.253093 3.002064 -5.240279
v 6.462795 2.979461 -6.208688
v 6.257622 3.555841 -5.252222
v 6.467327 3.533240 -6.220633
v 5.938711 3.556961 -5.321306
v 6.148416 3.534359 -6.289717
v 5.934181 3.003183 -5.309362
v 6.143887 2.980581 -6.277774
v 6.242730 3.659135 -5.689287
v 6.835330 3.627951 -6.483110
v 6.222221 4.211443 -5.726293
v 6.814822 4.180260 -6.520115
v 5.960944 4.188733 -5.920448
v 6.553545 4.157549 -6.714271
v 5.981452 3.636426 -5.883441
v 6.574053 3.605243 -6.677266
v 6.314173 3.039437 -4.131753
v 6.212232 3.114566 -5.114743
v 6.312944 3.591742 -4.089415
v 6.211004 3.666870 -5.072403
v 5.988369 3.588459 -4.056004
v 5.886426 3.663587 -5.038995
v 5.989595 3.036155 -4.098343
v 5.887655 3.111284 -5.081334
v 7.731337 1.711827 -7.404038
v 7.009822 1.765734 -6.726678
v 7.735829 1.160063 -7.355341
v 7.014315 1.213972 -6.677982
v 7.512131 1.137372 -7.591817
v 6.790615 1.191280 -6.914458
v 7.507638 1.689134 -7.640515
v 6.786122 1.743042 -6.963154
v 9.890543 2.864380 -7.735773
v 9.046576 2.768419 -7.749968
v 9.943142 2.394838 -7.688965
v 9.099176 2.298876 -7.703160
v 9.950880 2.367962 -7.967256
v 9.106912 2.272002 -7.981451
v 9.898278 2.837505 -8.014063
v 9.054312 2.741544 -8.028259
g default
v 6.200000 1.000000 -4.000000
v 6.200000 5.000000 -4.000000
v 5.800000 5.000000 -4.000000
v 5.800000 1.000000 -4.000000
v 10.000000 1.000000 -8.200000
v 10.000000 5.000000 -8.200000
v 10.000000 5.000000 -7.800000
v 10.000000 1.000000 -7.800000
v 8.000000 1.000000 -8.200000
v 8.000000 1.000000 -7.800000
v 8.000000 5.000000 -7.800000
v 8.000000 5.000000 -8.200000
v 6.200000 1.000000 -6.000000
v 5.800000 1.000000 -6.000000
v 5.800000 5.000000 -6.000000
v 6.200000 5.000000 -6.000000
vt 0.740377 0.622288
vt 0.792761 0.622296
vt 0.792756 0.653155
vt 0.740371 0.653146
vt 0.740357 0.746875
vt 0.792741 0.746883
vt 0.792736 0.777742
vt 0.740352 0.777733
vt 0.823614 0.653160
vt 0.823600 0.746887
vt 0.709498 0.746870
vt 0.709513 0.653141
vt 0.598476 0.831718
vt 0.650861 0.831717
vt 0.650862 0.862575
vt 0.598477 0.862576
vt 0.598479 0.956305
vt 0.650863 0.956304
vt 0.650864 0.987162
vt 0.598479 0.987164
vt 0.681720 0.862574
vt 0.681721 0.956303
vt 0.567620 0.956305
vt 0.567618 0.862576
vt 0.827059 0.716126
vt 0.879442 0.716121
vt 0.879444 0.746980
vt 0.827062 0.746985
vt 0.827069 0.840714
vt 0.879454 0.840708
vt 0.879456 0.871567
vt 0.827072 0.871572
vt 0.910303 0.746978
vt 0.910312 0.840706
vt 0.796210 0.840717
vt 0.796202 0.746988
vt 0.732495 0.466740
vt 0.784879 0.466749
vt 0.784874 0.497608
vt 0.732490 0.497599
vt 0.732475 0.591327
vt 0.784858 0.591337
vt 0.784853 0.622195
vt 0.732470 0.622186
vt 0.815733 0.497613
vt 0.815717 0.591342
vt 0.701616 0.591323
vt 0.701631 0.497594
vt 0.030959 0.820419
vt 0.083343 0.820420
vt 0.083341 0.851278
vt 0.030959 0.851277
vt 0.030957 0.945006
vt 0.083340 0.945007
vt 0.083340 0.975866
vt 0.030957 0.975865
vt 0.114200 0.851278
vt 0.114199 0.945007
vt 0.000098 0.945006
vt 0.000100 0.851277
vt 0.846775 0.405006
vt 0.899159 0.405010
vt 0.899157 0.435868
vt 0.846773 0.435864
vt 0.846767 0.529593
vt 0.899151 0.529597
vt 0.899149 0.560455
vt 0.846764 0.560451
vt 0.930016 0.435871
vt 0.930009 0.529599
vt 0.815908 0.529591
vt 0.815914 0.435862
vt 0.913297 0.814355
vt 0.958198 0.814354
vt 0.958200 0.840804
vt 0.913297 0.840805
vt 0.913300 0.921143
vt 0.958200 0.921142
vt 0.958202 0.947594
vt 0.913301 0.947595
vt 0.984649 0.840804
vt 0.984651 0.921142
vt 0.886850 0.921144
vt 0.886848 0.840806
vt 0.780912 0.466649
vt 0.728527 0.466641
vt 0.728534 0.435782
vt 0.780918 0.435790
vt 0.780935 0.342063
vt 0.728550 0.342052
vt 0.728556 0.311194
vt 0.780940 0.311204
vt 0.697675 0.435777
vt 0.697692 0.342048
vt 0.811793 0.342068
vt 0.811777 0.435796
vt 0.197633 0.992871
vt 0.145249 0.992870
vt 0.145250 0.962012
vt 0.197633 0.962013
vt 0.197634 0.868284
vt 0.145250 0.868283
vt 0.145251 0.837425
vt 0.197634 0.837426
vt 0.114390 0.962012
vt 0.114391 0.868283
vt 0.228493 0.868284
vt 0.228492 0.962013
vt 0.765159 0.933282
vt 0.712775 0.933284
vt 0.712773 0.902425
vt 0.765158 0.902423
vt 0.765153 0.808695
vt 0.712769 0.808697
vt 0.712768 0.777838
vt 0.765153 0.777836
vt 0.681915 0.902426
vt 0.681910 0.808698
vt 0.796012 0.808694
vt 0.796016 0.902422
vt 0.842834 0.249461
vt 0.895219 0.249465
vt 0.895216 0.280324
vt 0.842832 0.280319
vt 0.842826 0.374048
vt 0.895209 0.374052
vt 0.895207 0.404911
vt 0.842823 0.404907
vt 0.926075 0.280326
vt 0.926068 0.374054
vt 0.811967 0.374046
vt 0.811973 0.280317
vt 0.838880 0.093917
vt 0.891265 0.093910
vt 0.891269 0.124769
vt 0.838884 0.124776
vt 0.838897 0.218504
vt 0.891281 0.218498
vt 0.891285 0.249356
vt 0.838901 0.249363
vt 0.922127 0.124765
vt 0.922140 0.218493
vt 0.808038 0.218508
vt 0.808026 0.124780
vt 0.740351 0.000106
vt 0.792735 0.000098
vt 0.792742 0.030956
vt 0.740357 0.030966
vt 0.740376 0.124694
vt 0.792759 0.124684
vt 0.792765 0.155543
vt 0.740381 0.155553
vt 0.823600 0.030950
vt 0.823618 0.124679
vt 0.709517 0.124700
vt 0.709498 0.030971
vt 0.925121 0.000099
vt 0.970021 0.000098
vt 0.970022 0.026548
vt 0.925122 0.026550
vt 0.925124 0.106888
vt 0.970025 0.106886
vt 0.970025 0.133336
vt 0.925125 0.133338
vt 0.996472 0.026547
vt 0.996475 0.106885
vt 0.898674 0.106888
vt 0.898671 0.026550
vt 0.724615 0.155649
vt 0.776999 0.155658
vt 0.776993 0.186517
vt 0.724609 0.186508
vt 0.724593 0.280235
vt 0.776977 0.280246
vt 0.776971 0.311104
vt 0.724587 0.311094
vt 0.807852 0.186522
vt 0.807836 0.280251
vt 0.693734 0.280230
vt 0.693751 0.186501
vt 0.854648 0.560556
vt 0.907032 0.560554
vt 0.907033 0.591413
vt 0.854648 0.591415
vt 0.854651 0.685143
vt 0.907036 0.685141
vt 0.907037 0.716000
vt 0.854652 0.716002
vt 0.937892 0.591412
vt 0.937894 0.685140
vt 0.823793 0.685143
vt 0.823790 0.591416
vt 0.426217 0.999902
vt 0.373834 0.999901
vt 0.373835 0.969043
vt 0.426217 0.969044
vt 0.426218 0.875315
vt 0.373835 0.875314
vt 0.373836 0.844456
vt 0.426218 0.844457
vt 0.342974 0.969043
vt 0.342975 0.875314
vt 0.457077 0.875315
vt 0.457076 0.969044
vt 0.311925 0.996387
vt 0.259541 0.996386
vt 0.259542 0.965528
vt 0.311925 0.965529
vt 0.311926 0.871800
vt 0.259542 0.871799
vt 0.259543 0.840941
vt 0.311926 0.840942
vt 0.228682 0.965528
vt 0.228683 0.871799
vt 0.342785 0.871800
vt 0.342784 0.965529
vt 0.483716 0.846373
vt 0.528616 0.846372
vt 0.528618 0.872822
vt 0.483716 0.872823
vt 0.483719 0.953161
vt 0.528618 0.953160
vt 0.528620 0.979611
vt 0.483720 0.979612
vt 0.555067 0.872822
vt 0.555070 0.953160
vt 0.457269 0.953162
vt 0.457267 0.872824
vt 0.030911 0.394158
vt 0.038093 0.429542
vt 0.041437 0.778079
vt 0.030276 0.811852
vt 0.657886 0.436805
vt 0.668921 0.404649
vt 0.707253 0.022830
vt 0.669590 0.784139
vt 0.474293 0.415548
vt 0.494085 0.384109
vt 0.470752 0.816360
vt 0.512088 0.007942
vt 0.215707 0.382316
vt 0.235642 0.412475
vt 0.200044 0.837296
vt 0.222588 0.807712
vt 0.491923 0.846274
vt 0.207413 0.000098
vt 0.003239 0.777701
vt 0.015173 0.012524
vt 0.707707 0.782770
vt 0.680214 0.819563
vt 0.695900 0.434783
vt 0.000098 0.428528
vn 0.984550 -0.042742 -0.169805
vn 0.984550 -0.042742 -0.169805
vn 0.984550 -0.042742 -0.169805
vn 0.984550 -0.042742 -0.169805
vn -0.984550 0.042742 0.169805
vn -0.984550 0.042742 0.169805
vn -0.984550 0.042742 0.169805
vn -0.984550 0.042742 0.169805
vn 0.032342 0.997454 -0.063553
vn 0.032342 0.997454 -0.063553
vn 0.032342 0.997454 -0.063553
vn 0.032342 0.997454 -0.063553
vn 0.172089 0.057080 0.983426
vn 0.172089 0.057080 0.983426
vn 0.172089 0.057080 0.983426
vn 0.172089 0.057080 0.983426
vn -0.032342 -0.997454 0.063553
vn -0.032342 -0.997454 0.063553
vn -0.032342 -0.997454 0.063553
vn -0.032342 -0.997454 0.063553
vn 0.624107 0.040177 -0.780305
vn 0.624107 0.040177 -0.780305
vn 0.624107 0.040177 -0.780305
vn 0.624107 0.040177 -0.780305
vn -0.624107 -0.040177 0.780305
vn -0.624107 -0.040177 0.780305
vn -0.624107 -0.040177 0.780305
vn -0.624107 -0.040177 0.780305
vn -0.014084 0.999093 0.040177
vn -0.014084 0.999093 0.040177
vn -0.014084 0.999093 0.040177
vn -0.014084 0.999093 0.040177
vn 0.781212 -0.014084 0.624107
vn 0.781212 -0.014084 0.624107
vn 0.781212 -0.014084 0.624107
vn 0.781212 -0.014084 0.624107
vn 0.014084 -0.999093 -0.040177
vn 0.014084 -0.999093 -0.040177
vn 0.014084 -0.999093 -0.040177
vn 0.014084 -0.999093 -0.040177
vn 0.230448 -0.049218 -0.971839
vn 0.230448 -0.049218 -0.971839
vn 0.230448 -0.049218 -0.971839
vn 0.230448 -0.049218 -0.971839
vn -0.230448 0.049218 0.971839
vn -0.230448 0.049218 0.971839
vn -0.230448 0.049218 0.971839
vn -0.230448 0.049218 0.971839
vn 0.023754 0.998707 -0.044946
vn 0.023754 0.998707 -0.044946
vn 0.023754 0.998707 -0.044946
vn 0.023754 0.998707 -0.044946
vn 0.972795 -0.012727 0.231319
vn 0.972795 -0.012727 0.231319
vn 0.972795 -0.012727 0.231319
vn 0.972795 -0.012727 0.231319
vn -0.023754 -0.998707 0.044946
vn -0.023754 -0.998707 0.044946
vn -0.023754 -0.998707 0.044946
vn -0.023754 -0.998707 0.044946
vn 0.866407 -0.058810 -0.495864
vn 0.866407 -0.058810 -0.495864
vn 0.866407 -0.058810 -0.495864
vn 0.866407 -0.058810 -0.495864
vn -0.866407 0.058810 0.495864
vn -0.866407 0.058810 0.495864
vn -0.866407 0.058810 0.495864
vn -0.866407 0.058810 0.495864
vn 0.063333 0.997963 -0.007700
vn 0.063333 0.997963 -0.007700
vn 0.063333 0.997963 -0.007700
vn 0.063333 0.997963 -0.007700
vn 0.495305 -0.024732 0.868367
vn 0.495305 -0.024732 0.868367
vn 0.495305 -0.024732 0.868367
vn 0.495305 -0.024732 0.868367
vn -0.063333 -0.997963 0.007700
vn -0.063333 -0.997963 0.007700
vn -0.063333 -0.997963 0.007700
vn -0.063333 -0.997963 0.007700
vn 0.460121 0.023007 -0.887558
vn 0.460121 0.023007 -0.887558
vn 0.460121 0.023007 -0.887558
vn 0.460121 0.023007 -0.887558
vn -0.460121 -0.023007 0.887558
vn -0.460121 -0.023007 0.887558
vn -0.460121 -0.023007 0.887558
vn -0.460121 -0.023007 0.887558
vn -0.038099 0.999255 0.006150
vn -0.038099 0.999255 0.006150
vn -0.038099 0.999255 0.006150
vn -0.038099 0.999255 0.006150
vn 0.887038 0.030986 0.460656
vn 0.887038 0.030986 0.460656
vn 0.887038 0.030986 0.460656
vn 0.887038 0.030986 0.460656
vn 0.038099 -0.999255 -0.006150
vn 0.038099 -0.999255 -0.006150
vn 0.038099 -0.999255 -0.006150
vn 0.038099 -0.999255 -0.006150
vn 0.988747 -0.049421 -0.141197
vn 0.988747 -0.049421 -0.141197
vn 0.988747 -0.049421 -0.141197
vn 0.988747 -0.049421 -0.141197
vn -0.988747 0.049421 0.141197
vn -0.988747 0.049421 0.141197
vn -0.988747 0.049421 0.141197
vn -0.988747 0.049421 0.141197
vn 0.029789 0.989996 -0.137915
vn 0.029789 0.989996 -0.137915
vn 0.029789 0.989996 -0.137915
vn 0.029789 0.989996 -0.137915
vn 0.146599 0.132158 0.980328
vn 0.146599 0.132158 0.980328
vn 0.146599 0.132158 0.980328
vn 0.146599 0.132158 0.980328
vn -0.029789 -0.989996 0.137915
vn -0.029789 -0.989996 0.137915
vn -0.029789 -0.989996 0.137915
vn -0.029789 -0.989996 0.137915
vn 0.998268 0.044776 -0.038167
vn 0.998268 0.044776 -0.038167
vn 0.998268 0.044776 -0.038167
vn 0.998268 0.044776 -0.038167
vn -0.998268 -0.044776 0.038167
vn -0.998268 -0.044776 0.038167
vn -0.998268 -0.044776 0.038167
vn -0.998268 -0.044776 0.038167
vn -0.048192 0.994419 -0.093855
vn -0.048192 0.994419 -0.093855
vn -0.048192 0.994419 -0.093855
vn -0.048192 0.994419 -0.093855
vn 0.033751 0.095533 0.994854
vn 0.033751 0.095533 0.994854
vn 0.033751 0.095533 0.994854
vn 0.033751 0.095533 0.994854
vn 0.048192 -0.994419 0.093855
vn 0.048192 -0.994419 0.093855
vn 0.048192 -0.994419 0.093855
vn 0.048192 -0.994419 0.093855
vn -0.012821 -0.050898 -0.998622
vn -0.012821 -0.050898 -0.998622
vn -0.012821 -0.050898 -0.998622
vn -0.012821 -0.050898 -0.998622
vn 0.012821 0.050898 0.998622
vn 0.012821 0.050898 0.998622
vn 0.012821 0.050898 0.998622
vn 0.012821 0.050898 0.998622
vn -0.050158 0.997479 -0.050197
vn -0.050158 0.997479 -0.050197
vn -0.050158 0.997479 -0.050197
vn -0.050158 0.997479 -0.050197
vn 0.998659 0.049446 -0.015341
vn 0.998659 0.049446 -0.015341
vn 0.998659 0.049446 -0.015341
vn 0.998659 0.049446 -0.015341
vn 0.050158 -0.997479 0.050197
vn 0.050158 -0.997479 0.050197
vn 0.050158 -0.997479 0.050197
vn 0.050158 -0.997479 0.050197
vn 0.008592 -0.074766 -0.997164
vn 0.008592 -0.074766 -0.997164
vn 0.008592 -0.074766 -0.997164
vn 0.008592 -0.074766 -0.997164
vn -0.008592 0.074766 0.997164
vn -0.008592 0.074766 0.997164
vn -0.008592 0.074766 0.997164
vn -0.008592 0.074766 0.997164
vn -0.047484 0.996045 -0.075092
vn -0.047484 0.996045 -0.075092
vn -0.047484 0.996045 -0.075092
vn -0.047484 0.996045 -0.075092
vn 0.998835 0.047995 0.005008
vn 0.998835 0.047995 0.005008
vn 0.998835 0.047995 0.005008
vn 0.998835 0.047995 0.005008
vn 0.047484 -0.996045 0.075092
vn 0.047484 -0.996045 0.075092
vn 0.047484 -0.996045 0.075092
vn 0.047484 -0.996045 0.075092
vn 0.154340 -0.023105 -0.987748
vn 0.154340 -0.023105 -0.987748
vn 0.154340 -0.023105 -0.987748
vn 0.154340 -0.023105 -0.987748
vn -0.154340 0.023105 0.987748
vn -0.154340 0.023105 0.987748
vn -0.154340 0.023105 0.987748
vn -0.154340 0.023105 0.987748
vn -0.057711 0.997809 -0.032359
vn -0.057711 0.997809 -0.032359
vn -0.057711 0.997809 -0.032359
vn -0.057711 0.997809 -0.032359
vn 0.986331 0.061998 0.152669
vn 0.986331 0.061998 0.152669
vn 0.986331 0.061998 0.152669
vn 0.986331 0.061998 0.152669
vn 0.057711 -0.997809 0.032359
vn 0.057711 -0.997809 0.032359
vn 0.057711 -0.997809 0.032359
vn 0.057711 -0.997809 0.032359
vn 0.808498 -0.116951 -0.576761
vn 0.808498 -0.116951 -0.576761
vn 0.808498 -0.116951 -0.576761
vn 0.808498 -0.116951 -0.576761
vn -0.808498 0.116951 0.576761
vn -0.808498 0.116951 0.576761
vn -0.808498 0.116951 0.576761
vn -0.808498 0.116951 0.576761
vn 0.136407 0.990606 -0.009653
vn 0.136407 0.990606 -0.009653
vn 0.136407 0.990606 -0.009653
vn 0.136407 0.990606 -0.009653
vn 0.572472 -0.070869 0.816856
vn 0.572472 -0.070869 0.816856
vn 0.572472 -0.070869 0.816856
vn 0.572472 -0.070869 0.816856
vn -0.136407 -0.990606 0.009653
vn -0.136407 -0.990606 0.009653
vn -0.136407 -0.990606 0.009653
vn -0.136407 -0.990606 0.009653
vn 0.985583 -0.033385 -0.165870
vn 0.985583 -0.033385 -0.165870
vn 0.985583 -0.033385 -0.165870
vn 0.985583 -0.033385 -0.165870
vn -0.985583 0.033385 0.165870
vn -0.985583 0.033385 0.165870
vn -0.985583 0.033385 0.165870
vn -0.985583 0.033385 0.165870
vn 0.025359 0.998413 -0.050279
vn 0.025359 0.998413 -0.050279
vn 0.025359 0.998413 -0.050279
vn 0.025359 0.998413 -0.050279
vn 0.167284 0.045349 0.984865
vn 0.167284 0.045349 0.984865
vn 0.167284 0.045349 0.984865
vn 0.167284 0.045349 0.984865
vn -0.025359 -0.998413 0.050279
vn -0.025359 -0.998413 0.050279
vn -0.025359 -0.998413 0.050279
vn -0.025359 -0.998413 0.050279
vn 0.880611 -0.035359 -0.472518
vn 0.880611 -0.035359 -0.472518
vn 0.880611 -0.035359 -0.472518
vn 0.880611 -0.035359 -0.472518
vn -0.880611 0.035359 0.472518
vn -0.880611 0.035359 0.472518
vn -0.880611 0.035359 0.472518
vn -0.880611 0.035359 0.472518
vn 0.019571 0.999075 -0.038287
vn 0.019571 0.999075 -0.038287
vn 0.019571 0.999075 -0.038287
vn 0.019571 0.999075 -0.038287
vn 0.473434 0.024469 0.880489
vn 0.473434 0.024469 0.880489
vn 0.473434 0.024469 0.880489
vn 0.473434 0.024469 0.880489
vn -0.019571 -0.999075 0.038287
vn -0.019571 -0.999075 0.038287
vn -0.019571 -0.999075 0.038287
vn -0.019571 -0.999075 0.038287
vn 0.999404 0.012525 0.032161
vn 0.999404 0.012525 0.032161
vn 0.999404 0.012525 0.032161
vn 0.999404 0.012525 0.032161
vn -0.999404 -0.012525 -0.032161
vn -0.999404 -0.012525 -0.032161
vn -0.999404 -0.012525 -0.032161
vn -0.999404 -0.012525 -0.032161
vn -0.012225 0.999880 -0.009490
vn -0.012225 0.999880 -0.009490
vn -0.012225 0.999880 -0.009490
vn -0.012225 0.999880 -0.009490
vn -0.032277 0.009092 0.999438
vn -0.032277 0.009092 0.999438
vn -0.032277 0.009092 0.999438
vn -0.032277 0.009092 0.999438
vn 0.012225 -0.999880 0.009490
vn 0.012225 -0.999880 0.009490
vn 0.012225 -0.999880 0.009490
vn 0.012225 -0.999880 0.009490
vn 0.211585 -0.022805 -0.977094
vn 0.211585 -0.022805 -0.977094
vn 0.211585 -0.022805 -0.977094
vn 0.211585 -0.022805 -0.977094
vn -0.211585 0.022805 0.977094
vn -0.211585 0.022805 0.977094
vn -0.211585 0.022805 0.977094
vn -0.211585 0.022805 0.977094
vn 0.008179 0.999734 -0.021562
vn 0.008179 0.999734 -0.021562
vn 0.008179 0.999734 -0.021562
vn 0.008179 0.999734 -0.021562
vn 0.977325 -0.003430 0.211716
vn 0.977325 -0.003430 0.211716
vn 0.977325 -0.003430 0.211716
vn 0.977325 -0.003430 0.211716
vn -0.008179 -0.999734 0.021562
vn -0.008179 -0.999734 0.021562
vn -0.008179 -0.999734 0.021562
vn -0.008179 -0.999734 0.021562
vn 0.597916 -0.031463 -0.800941
vn 0.597916 -0.031463 -0.800941
vn 0.597916 -0.031463 -0.800941
vn 0.597916 -0.031463 -0.800941
vn -0.597916 0.031463 0.800941
vn -0.597916 0.031463 0.800941
vn -0.597916 0.031463 0.800941
vn -0.597916 0.031463 0.800941
vn -0.037022 0.997079 -0.066805
vn -0.037022 0.997079 -0.066805
vn -0.037022 0.997079 -0.066805
vn -0.037022 0.997079 -0.066805
vn 0.800703 0.069596 0.595005
vn 0.800703 0.069596 0.595005
vn 0.800703 0.069596 0.595005
vn 0.800703 0.069596 0.595005
vn 0.037022 -0.997079 0.066805
vn 0.037022 -0.997079 0.066805
vn 0.037022 -0.997079 0.066805
vn 0.037022 -0.997079 0.066805
vn -0.102855 0.075803 -0.991804
vn -0.102855 0.075803 -0.991804
vn -0.102855 0.075803 -0.991804
vn -0.102855 0.075803 -0.991804
vn 0.102855 -0.075803 0.991804
vn 0.102855 -0.075803 0.991804
vn 0.102855 -0.075803 0.991804
vn 0.102855 -0.075803 0.991804
vn -0.002217 0.997072 0.076435
vn -0.002217 0.997072 0.076435
vn -0.002217 0.997072 0.076435
vn -0.002217 0.997072 0.076435
vn 0.994694 0.010060 -0.102386
vn 0.994694 0.010060 -0.102386
vn 0.994694 0.010060 -0.102386
vn 0.994694 0.010060 -0.102386
vn 0.002217 -0.997072 -0.076435
vn 0.002217 -0.997072 -0.076435
vn 0.002217 -0.997072 -0.076435
vn 0.002217 -0.997072 -0.076435
vn -0.727984 0.054391 0.683433
vn -0.727984 0.054391 0.683433
vn -0.727984 0.054391 0.683433
vn -0.727984 0.054391 0.683433
vn 0.727984 -0.054391 -0.683433
vn 0.727984 -0.054391 -0.683433
vn 0.727984 -0.054391 -0.683433
vn 0.727984 -0.054391 -0.683433
vn 0.008110 -0.996095 0.087913
vn 0.008110 -0.996095 0.087913
vn 0.008110 -0.996095 0.087913
vn 0.008110 -0.996095 0.087913
vn 0.685546 0.069541 0.724700
vn 0.685546 0.069541 0.724700
vn 0.685546 0.069541 0.724700
vn 0.685546 0.069541 0.724700
vn -0.008110 0.996095 -0.087913
vn -0.008110 0.996095 -0.087913
vn -0.008110 0.996095 -0.087913
vn -0.008110 0.996095 -0.087913
vn -0.993459 -0.112959 -0.016710
vn -0.993459 -0.112959 -0.016710
vn -0.993459 -0.112959 -0.016710
vn -0.993459 -0.112959 -0.016710
vn 0.993459 0.112959 0.016710
vn 0.993459 0.112959 0.016710
vn 0.993459 0.112959 0.016710
vn 0.993459 0.112959 0.016710
vn 0.110787 -0.988942 0.098586
vn 0.110787 -0.988942 0.098586
vn 0.110787 -0.988942 0.098586
vn 0.110787 -0.988942 0.098586
vn -0.027661 0.096088 0.994988
vn -0.027661 0.096088 0.994988
vn -0.027661 0.096088 0.994988
vn -0.027661 0.096088 0.994988
vn -0.110787 0.988942 -0.098586
vn -0.110787 0.988942 -0.098586
vn -0.110787 0.988942 -0.098586
vn -0.110787 0.988942 -0.098586
vn 0.000000 0.000000 1.000000
vn 0.000000 0.000000 1.000000
vn 0.000000 0.000000 1.000000
vn 0.000000 0.000000 1.000000
vn 1.000000 0.000000 0.000000
vn 1.000000 0.000000 0.000000
vn 1.000000 0.000000 0.000000
vn 1.000000 0.000000 0.000000
vn 0.000000 -1.000000 0.000000
vn 0.000000 -1.000000 0.000000
vn 0.000000 -1.000000 0.000000
vn 0.000000 -1.000000 0.000000
vn 0.000000 0.000000 1.000000
vn 0.000000 0.000000 1.000000
vn 0.000000 0.000000 1.000000
vn 0.000000 0.000000 1.000000
vn 0.000000 1.000000 0.000000
vn 0.000000 1.000000 0.000000
vn 0.000000 1.000000 0.000000
vn 0.000000 1.000000 0.000000
vn 0.000000 0.000000 -1.000000
vn 0.000000 0.000000 -1.000000
vn 0.000000 0.000000 -1.000000
vn 0.000000 0.000000 -1.000000
vn 0.000000 -1.000000 0.000000
vn 0.000000 -1.000000 0.000000
vn 0.000000 -1.000000 0.000000
vn 0.000000 -1.000000 0.000000
vn -1.000000 0.000000 0.000000
vn -1.000000 0.000000 0.000000
vn -1.000000 0.000000 0.000000
vn -1.000000 0.000000 0.000000
vn 0.000000 1.000000 0.000000
vn 0.000000 1.000000 0.000000
vn 0.000000 1.000000 0.000000
vn 0.000000 1.000000 0.000000
vn 1.000000 0.000000 0.000000
vn 1.000000 0.000000 0.000000
vn 1.000000 0.000000 0.000000
vn 1.000000 0.000000 0.000000
vn 0.707107 0.000000 0.707107
vn 0.707107 0.000000 0.707107
vn 0.707107 0.000000 0.707107
vn 0.707107 0.000000 0.707107
vn 0.000000 1.000000 0.000000
vn 0.000000 1.000000 0.000000
vn 0.000000 1.000000 0.000000
vn 0.000000 1.000000 0.000000
vn -0.707107 0.000000 -0.707107
vn -0.707107 0.000000 -0.707107
vn -0.707107 0.000000 -0.707107
vn -0.707107 0.000000 -0.707107
vn 0.000000 -1.000000 0.000000
vn 0.000000 -1.000000 0.000000
vn 0.000000 -1.000000 0.000000
vn 0.000000 -1.000000 0.000000
s off
g CornerBlank01_low:Brick_high CornerBlank01_low:Corner01 CornerBlank01_low:Corner01_low CornerBlank01_low:Corner_low CornerBlank01_low:Wall_high Inverted_low
usemtl initialShadingGroup
f 8/1/1 6/2/2 4/3/3 2/4/4
f 1/5/5 3/6/6 5/7/7 7/8/8
f 6/9/9 5/10/10 3/6/11 4/3/12
f 3/6/13 1/5/14 2/4/15 4/3/16
f 1/5/17 7/11/18 8/12/19 2/4/20
f 16/13/21 14/14/22 12/15/23 10/16/24
f 9/17/25 11/18/26 13/19/27 15/20/28
f 14/21/29 13/22/30 11/18/31 12/15/32
f 11/18/33 9/17/34 10/16/35 12/15/36
f 9/17/37 15/23/38 16/24/39 10/16/40
f 24/25/41 22/26/42 20/27/43 18/28/44
f 17/29/45 19/30/46 21/31/47 23/32/48
f 22/33/49 21/34/50 19/30/51 20/27/52
f 19/30/53 17/29/54 18/28/55 20/27/56
f 17/29/57 23/35/58 24/36/59 18/28/60
f 32/37/61 30/38/62 28/39/63 26/40/64
f 25/41/65 27/42/66 29/43/67 31/44/68
f 30/45/69 29/46/70 27/42/71 28/39/72
f 27/42/73 25/41/74 26/40/75 28/39/76
f 25/41/77 31/47/78 32/48/79 26/40/80
f 40/49/81 38/50/82 36/51/83 34/52/84
f 33/53/85 35/54/86 37/55/87 39/56/88
f 38/57/89 37/58/90 35/54/91 36/51/92
f 35/54/93 33/53/94 34/52/95 36/51/96
f 33/53/97 39/59/98 40/60/99 34/52/100
f 48/61/101 46/62/102 44/63/103 42/64/104
f 41/65/105 43/66/106 45/67/107 47/68/108
f 46/69/109 45/70/110 43/66/111 44/63/112
f 43/66/113 41/65/114 42/64/115 44/63/116
f 41/65/117 47/71/118 48/72/119 42/64/120
f 56/73/121 54/74/122 52/75/123 50/76/124
f 49/77/125 51/78/126 53/79/127 55/80/128
f 54/81/129 53/82/130 51/78/131 52/75/132
f 51/78/133 49/77/134 50/76/135 52/75/136
f 49/77/137 55/83/138 56/84/139 50/76/140
f 64/85/141 62/86/142 60/87/143 58/88/144
f 57/89/145 59/90/146 61/91/147 63/92/148
f 62/93/149 61/94/150 59/90/151 60/87/152
f 59/90/153 57/89/154 58/88/155 60/87/156
f 57/89/157 63/95/158 64/96/159 58/88/160
f 72/97/161 70/98/162 68/99/163 66/100/164
f 65/101/165 67/102/166 69/103/167 71/104/168
f 70/105/169 69/106/170 67/102/171 68/99/172
f 67/102/173 65/101/174 66/100/175 68/99/176
f 65/101/177 71/107/178 72/108/179 66/100/180
f 80/109/181 78/110/182 76/111/183 74/112/184
f 73/113/185 75/114/186 77/115/187 79/116/188
f 78/117/189 77/118/190 75/114/191 76/111/192
f 75/114/193 73/113/194 74/112/195 76/111/196
f 73/113/197 79/119/198 80/120/199 74/112/200
f 88/121/201 86/122/202 84/123/203 82/124/204
f 81/125/205 83/126/206 85/127/207 87/128/208
f 86/129/209 85/130/210 83/126/211 84/123/212
f 83/126/213 81/125/214 82/124/215 84/123/216
f 81/125/217 87/131/218 88/132/219 82/124/220
f 96/133/221 94/134/222 92/135/223 90/136/224
f 89/137/225 91/138/226 93/139/227 95/140/228
f 94/141/229 93/142/230 91/138/231 92/135/232
f 91/138/233 89/137/234 90/136/235 92/135/236
f 89/137/237 95/143/238 96/144/239 90/136/240
f 104/145/241 102/146/242 100/147/243 98/148/244
f 97/149/245 99/150/246 101/151/247 103/152/248
f 102/153/249 101/154/250 99/150/251 100/147/252
f 99/150/253 97/149/254 98/148/255 100/147/256
f 97/149/257 103/155/258 104/156/259 98/148/260
f 112/157/261 110/158/262 108/159/263 106/160/264
f 105/161/265 107/162/266 109/163/267 111/164/268
f 110/165/269 109/166/270 107/162/271 108/159/272
f 107/162/273 105/161/274 106/160/275 108/159/276
f 105/161/277 111/167/278 112/168/279 106/160/280
f 120/169/281 118/170/282 116/171/283 114/172/284
f 113/173/285 115/174/286 117/175/287 119/176/288
f 118/177/289 117/178/290 115/174/291 116/171/292
f 115/174/293 113/173/294 114/172/295 116/171/296
f 113/173/297 119/179/298 120/180/299 114/172/300
f 128/181/301 126/182/302 124/183/303 122/184/304
f 121/185/305 123/186/306 125/187/307 127/188/308
f 126/189/309 125/190/310 123/186/311 124/183/312
f 123/186/313 121/185/314 122/184/315 124/183/316
f 121/185/317 127/191/318 128/192/319 122/184/320
f 136/193/321 134/194/322 132/195/323 130/196/324
f 129/197/325 131/198/326 133/199/327 135/200/328
f 134/201/329 133/202/330 131/198/331 132/195/332
f 131/198/333 129/197/334 130/196/335 132/195/336
f 129/197/337 135/203/338 136/204/339 130/196/340
f 144/205/341 142/206/342 140/207/343 138/208/344
f 137/209/345 139/210/346 141/211/347 143/212/348
f 142/213/349 141/214/350 139/210/351 140/207/352
f 139/210/353 137/209/354 138/208/355 140/207/356
f 137/209/357 143/215/358 144/216/359 138/208/360
f 152/217/361 150/218/362 148/219/363 146/220/364
f 145/221/365 147/222/366 149/223/367 151/224/368
f 150/225/369 149/226/370 147/222/371 148/219/372
f 147/222/373 145/221/374 146/220/375 148/219/376
f 145/221/377 151/227/378 152/228/379 146/220/380
g Inverted_low
f 156/252/381 153/230/382 154/231/383 155/247/384
f 160/233/385 157/251/386 158/249/387 159/236/388
f 160/233/389 162/237/390 161/238/391 157/234/392
f 159/236/393 163/239/394 162/237/395 160/233/396
f 158/250/397 164/245/398 163/239/399 159/236/400
f 157/234/401 161/238/402 164/240/403 158/235/404
f 156/229/405 166/241/406 165/242/407 153/230/408
f 155/248/409 167/246/410 166/241/411 156/229/412
f 154/231/413 168/244/414 167/243/415 155/232/416
f 153/230/417 165/242/418 168/244/419 154/231/420
f 162/237/421 163/239/422 168/244/423 165/242/424
f 163/239/425 164/245/426 167/243/427 168/244/428
f 164/240/429 161/238/430 166/241/431 167/246/432
f 161/238/433 162/237/434 165/242/435 166/241/436
