# This file uses centimeters as units for non-parametric coordinates.

mtllib CrenelationStraight_low.mtl
g default
v -2.000000 4.800000 0.200000
v 2.000000 4.800000 0.200000
v -2.000000 5.200000 0.200000
v 2.000000 5.200000 0.200000
v -2.000000 5.200000 -0.200000
v 2.000000 5.200000 -0.200000
v -2.000000 4.800000 -0.200000
v 2.000000 4.800000 -0.200000
v -2.000000 4.800000 0.400000
v 2.000000 4.800000 0.400000
v 2.000000 5.200000 0.400000
v -2.000000 5.200000 0.400000
v 0.000000 4.800000 0.200000
v 0.000000 4.800000 -0.200000
v 0.000000 5.200000 -0.200000
v 0.000000 5.200000 0.200000
v 0.000000 5.200000 0.400000
v 0.000000 4.800000 0.400000
v 1.000000 4.800000 0.200000
v 1.000000 4.800000 0.400000
v 1.000000 5.200000 0.400000
v 1.000000 5.200000 0.200000
v 1.000000 5.200000 -0.200000
v 1.000000 4.800000 -0.200000
v -1.000000 4.800000 0.200000
v -1.000000 4.800000 -0.200000
v -1.000000 5.200000 -0.200000
v -1.000000 5.200000 0.200000
v -1.000000 5.200000 0.400000
v -1.000000 4.800000 0.400000
v 1.000000 5.700000 0.400000
v 1.000000 5.700000 0.200000
v 0.000000 5.700000 0.200000
v 0.000000 5.700000 0.400000
v -1.000000 5.700000 0.200000
v -1.000000 5.700000 0.400000
v -2.000000 5.700000 0.200000
v -2.000000 5.700000 0.400000
vt 0.274133 0.492547
vt 0.196614 0.492349
vt 0.195767 0.302197
vt 0.274517 0.303336
vt 0.003832 0.489945
vt 0.312803 0.492458
vt 0.313870 0.301803
vt 0.005476 0.294267
vt 0.585829 0.254312
vt 0.080768 0.491108
vt 0.081921 0.297396
vt 0.585825 0.293236
vt 0.585856 0.020769
vt 0.585851 0.059693
vt 0.438648 0.254321
vt 0.438652 0.293245
vt 0.438625 0.020778
vt 0.438629 0.059702
vt 0.683139 0.254323
vt 0.683134 0.293247
vt 0.683165 0.020780
vt 0.683161 0.059704
vt 0.535958 0.254312
vt 0.535961 0.293236
vt 0.535934 0.020769
vt 0.535938 0.059693
vt 0.157927 0.492107
vt 0.157945 0.300487
vt 0.169266 0.105758
vt 0.092810 0.102599
vt 0.016356 0.098503
vt 0.300603 0.114085
vt 0.080660 0.875419
vt 0.157581 0.875649
vt 0.272802 0.914250
vt 0.003837 0.875183
vt 0.270667 0.131092
vt 0.207599 0.107015
vt 0.196046 0.875736
vt 0.272890 0.875866
vt 0.157986 0.683803
vt 0.080919 0.683462
vt 0.389310 0.683396
vt 0.312414 0.683890
vt 0.273686 0.683974
vt 0.196546 0.683895
vt 0.004011 0.683068
vt 0.389797 0.491183
vt 0.390258 0.297857
vt 0.277868 0.008982
vt 0.195888 0.990890
vt 0.342594 0.051553
vt 0.376678 0.105847
vt 0.390430 0.875325
vt 0.272665 0.991018
vt 0.313653 0.875798
vt 0.233103 0.073127
vt 0.196007 0.914121
vt 0.438671 0.487864
vt 0.399705 0.059706
vt 0.399724 0.254325
vt 0.535981 0.487855
vt 0.585803 0.487855
vt 0.546928 0.059688
vt 0.546906 0.254307
vt 0.683112 0.487866
vn 0.000000 0.000000 1.000000
vn 0.000000 0.000000 1.000000
vn 0.000000 0.000000 1.000000
vn 0.000000 0.000000 1.000000
vn 0.000000 1.000000 0.000000
vn 0.000000 1.000000 0.000000
vn 0.000000 1.000000 0.000000
vn 0.000000 1.000000 0.000000
vn 0.000000 0.000000 -1.000000
vn 0.000000 0.000000 -1.000000
vn 0.000000 0.000000 -1.000000
vn 0.000000 0.000000 -1.000000
vn 0.000000 -1.000000 0.000000
vn 0.000000 -1.000000 0.000000
vn 0.000000 -1.000000 0.000000
vn 0.000000 -1.000000 0.000000
vn 1.000000 0.000000 0.000000
vn 1.000000 0.000000 0.000000
vn 1.000000 0.000000 0.000000
vn 1.000000 0.000000 0.000000
vn -1.000000 0.000000 0.000000
vn -1.000000 0.000000 0.000000
vn -1.000000 0.000000 0.000000
vn -1.000000 0.000000 0.000000
vn 0.000000 -1.000000 0.000000
vn 0.000000 -1.000000 0.000000
vn 1.000000 0.000000 0.000000
vn 1.000000 0.000000 0.000000
vn 0.000000 1.000000 0.000000
vn 0.000000 1.000000 0.000000
vn 0.000000 1.000000 0.000000
vn 0.000000 1.000000 0.000000
vn -1.000000 0.000000 0.000000
vn -1.000000 0.000000 0.000000
vn 0.000000 -1.000000 0.000000
vn 0.000000 -1.000000 0.000000
vn 0.000000 0.000000 -1.000000
vn 0.000000 0.000000 -1.000000
vn 0.000000 1.000000 0.000000
vn 0.000000 1.000000 0.000000
vn 0.000000 1.000000 0.000000
vn 0.000000 1.000000 0.000000
vn 0.000000 0.000000 1.000000
vn 0.000000 0.000000 1.000000
vn 0.000000 -1.000000 0.000000
vn 0.000000 -1.000000 0.000000
vn 0.000000 -1.000000 0.000000
vn 0.000000 0.000000 1.000000
vn 0.000000 0.000000 1.000000
vn 0.000000 1.000000 0.000000
vn 0.000000 1.000000 0.000000
vn 0.000000 1.000000 0.000000
vn 0.000000 1.000000 0.000000
vn 0.000000 0.000000 -1.000000
vn 0.000000 0.000000 -1.000000
vn 0.000000 -1.000000 0.000000
vn 0.000000 -1.000000 0.000000
vn 0.000000 -1.000000 0.000000
vn 0.000000 0.000000 -1.000000
vn 0.000000 0.000000 -1.000000
vn 0.000000 1.000000 0.000000
vn 0.000000 1.000000 0.000000
vn 0.000000 1.000000 0.000000
vn 0.000000 1.000000 0.000000
vn 0.000000 1.000000 0.000000
vn 0.000000 1.000000 0.000000
vn 0.000000 0.000000 1.000000
vn 0.000000 0.000000 1.000000
vn 0.000000 -1.000000 0.000000
vn 1.000000 0.000000 0.000000
vn 1.000000 0.000000 0.000000
vn 1.000000 0.000000 0.000000
vn 1.000000 0.000000 0.000000
vn 0.000000 0.000000 -1.000000
vn 0.000000 0.000000 -1.000000
vn 0.000000 0.000000 -1.000000
vn 0.000000 0.000000 -1.000000
vn -1.000000 0.000000 0.000000
vn -1.000000 0.000000 0.000000
vn -1.000000 0.000000 0.000000
vn -1.000000 0.000000 0.000000
vn 0.000000 0.000000 1.000000
vn 0.000000 0.000000 1.000000
vn 1.000000 0.000000 0.000000
vn 1.000000 0.000000 0.000000
vn 1.000000 0.000000 0.000000
vn 1.000000 0.000000 0.000000
vn 0.000000 0.000000 -1.000000
vn 0.000000 0.000000 -1.000000
vn 0.000000 0.000000 -1.000000
vn 0.000000 0.000000 -1.000000
vn -1.000000 0.000000 0.000000
vn -1.000000 0.000000 0.000000
vn 0.000000 0.000000 1.000000
vn 0.000000 0.000000 1.000000
s 1
g StraightCrenelation_low StraightCrenelations
usemtl initialShadingGroup
f 17/1/1 18/2/2 20/3/3 21/4/4
s 2
f 15/48/5 16/6/6 22/7/7 23/49/8
s 3
f 14/10/9 15/5/10 23/8/11 24/11/12
s 4
f 13/27/13 14/10/14 24/11/15 19/28/16
s 5
f 2/57/17 8/50/18 6/52/19 4/32/20
s 6
f 7/51/21 1/58/22 3/35/23 5/55/24
s 4
f 18/2/25 13/27/13 19/28/16 20/3/26
s 5
f 2/57/17 4/32/20 11/37/27 10/38/28
s off
f 31/9/29 32/65/30 33/64/31 34/14/32
s 6
f 3/35/23 1/58/22 9/39/33 12/40/34
s 4
f 25/41/35 26/42/36 14/10/14 13/27/13
s 3
f 26/42/37 27/47/38 15/5/10 14/10/9
s 2
f 27/43/39 28/44/40 16/6/6 15/48/5
f 17/1/41 16/6/6 28/44/40 29/45/42
s 1
f 29/45/43 30/46/44 18/2/2 17/1/1
s 4
f 30/46/45 25/41/35 13/27/13 18/2/25
f 20/3/26 19/28/16 2/29/46 10/38/47
s 1
f 21/4/4 20/3/3 10/38/48 11/37/49
s 2
f 4/32/50 22/7/7 21/4/51 11/37/52
f 23/49/8 22/7/7 4/32/50 6/53/53
s 3
f 24/11/12 23/8/11 6/31/54 8/30/55
s 4
f 19/28/16 24/11/15 8/30/56 2/29/46
f 7/33/57 26/42/36 25/41/35 1/34/58
s 3
f 5/36/59 27/47/38 26/42/37 7/33/60
s 2
f 3/56/61 28/44/40 27/43/39 5/54/62
s off
f 36/15/63 35/61/64 37/60/65 38/18/66
s 1
f 9/39/67 30/46/44 29/45/43 12/40/68
s 4
f 1/34/58 25/41/35 30/46/45 9/39/69
s off
f 21/19/70 22/20/71 32/12/72 31/9/73
f 22/20/74 16/66/75 33/63/76 32/12/77
f 16/21/78 17/22/79 34/14/80 33/13/81
s 1
f 17/22/1 21/19/4 31/9/82 34/14/83
s off
f 29/23/84 28/24/85 35/16/86 36/15/87
f 28/24/88 3/62/89 37/59/90 35/16/91
s 6
f 3/25/23 12/26/34 38/18/92 37/17/93
s 1
f 12/26/68 29/23/43 36/15/94 38/18/95
